10
55
010011100111110101110100000111010001111101010110001010
000111011001110110011000100000010101001101010001001011
000100111101001101001111010111101111100110011011111000
010001111000100011011110011010011011001101001000000101
100000011111111010110110110100111101100100011110101111
110001010110101111110111101101010010100011001101010001
100110011011011010111111010001011000001100011110010101
000000100000001101000100001011111111010010001111111111
111010101011010011001111000001110101111101000000100101
000000001011001111011111111101000000000011110001111000
28